R para Ciência de Dados (2ª edição) - 21 ✅ Bancos de dados
…
Se você está usando o duckdb em um projeto real, recomendamos fortemente ler sobre duckdb_read_csv() e duckdb_register_arrow(). Estas funções te dão formas poderosas e de alto desempenho para carregar dados diretamente ao duckdb sem ter que os carregar primeiro no R. Nós também demonstraremos uma técnica útil para carregar vários arquivos em um banco de dados na Seção 26.4.1.

21.3.3 O básico do DBI

Você pode confirmar se os dados foram carregados corretamente usando um par de funções do DBI: dbListTables() lista todas as tabelas da banco de dados3 e dbReadTable() retorna o conteúdo de uma tabela.

dbListTables(con)
#> [1] "diamante" "milhas"

con |> 
  dbReadTable("diamante") |> 
  as_tibble()
#> # A tibble: 53,940 × 10
#>   preco quilate corte     cor   transparencia profundidade tabela     x     y
#>   <int>   <dbl> <fct>     <fct> <fct>                <dbl>  <dbl> <dbl> <dbl>
#> 1   326    0.23 Ideal     E     SI2                   61.5     55  3.95  3.98
#> 2   326    0.21 Premium   E     SI1                   59.8     61  3.89  3.84
#> 3   327    0.23 Bom       E     VS1                   56.9     65  4.05  4.07
#> 4   334    0.29 Premium   I     VS2                   62.4     58  4.2   4.23
#> 5   335    0.31 Bom       J     SI2                   63.3     58  4.34  4.35
#> 6   336    0.24 Muito Bom J     VVS2                  62.8     57  3.94  3.96
#> # ℹ 53,934 more rows
#> # ℹ 1 more variable: z <dbl>

dbReadTable() retorna um data.frame, portanto usamos as_tibble() para converter em um tibble para que imprima de forma mais bonita na tela.

Se você já sabe SQL, você pode usar dbGetQuery() pata obter os resultados de uma consulta executada no banco de dados:

sql <- "
  SELECT quilate, corte, transparencia, cor, preco 
  FROM diamante 
  WHERE preco > 15000
"
as_tibble(dbGetQuery(con, sql))
#> # A tibble: 1,655 × 5
#>   quilate corte     transparencia cor   preco
#>     <dbl> <fct>     <fct>         <fct> <int>
#> 1    1.54 Premium   VS2           E     15002
#> 2    1.19 Ideal     VVS1          F     15005
#> 3    2.1  Premium   SI1           I     15007
#> 4    1.69 Ideal     SI1           D     15011
#> 5    1.5  Muito Bom VVS2          G     15013
#> 6    1.73 Muito Bom VS1           G     15014
#> # ℹ 1,649 more rows
…
Você também pode ver o código SQL gerado através da função show_query() do dplyr. Se você conhece dplyr, esta é uma boa maneira de aprender SQL! Escreva algum código dplyr, deixe o dbplyr traduzir para o SQL, e então tente entender como as duas linguagens se relacionam.

grandes_diamantes_bd |>
  show_query()
#> <SQL>
#> SELECT quilate, corte, cor, transparencia, preco
#> FROM diamante
#> WHERE (preco > 15000.0)

Para puxar os dados de volta para o R, você chama a função collect(). Por trás dos panos, isto gera o SQL, chama dbGetQuery() para obter os dados, e então transforma o resultado em um tibble:

grandes_diamantes <- grandes_diamantes_bd |> 
  collect()
grandes_diamantes
#> # A tibble: 1,655 × 5
#>   quilate corte     cor   transparencia preco
#>     <dbl> <fct>     <fct> <fct>         <int>
#> 1    1.54 Premium   E     VS2           15002
#> 2    1.19 Ideal     F     VVS1          15005
#> 3    2.1  Premium   I     SI1           15007
#> 4    1.69 Ideal     D     SI1           15011
#> 5    1.5  Muito Bom G     VVS2          15013
#> 6    1.73 Muito Bom G     VS1           15014
#> # ℹ 1,649 more rows
…
