R para Ciência de Dados (2ª edição) - 3 ✅ Transformação de dados
…
Preste bastante atenção às mensagens de conflito exibidas quando você carregar o tidyverse. Elas te indicam que o dplyr sobrescreve algumas funções do R base. Se você quiser utilizar a versão R base dessas funções depois de carregar o dplyr, você deverá usar seus nomes completos: stats::filter() e stats::lag(). Até agora nós basicamente ignoramos o pacote ao qual uma função pertence, pois na maioria das vezes isso não importava.

No entanto, conhecer o pacote pode te auxiliar na obtenção de ajuda e na busca por funções relacionadas, então quando for necessário sermos precisos a respeito de qual pacote uma função pertence, nós utilizaremos a mesma sintaxe que o R: nomedopacote::nomedafuncao().

3.1.2 Voos (nycflights13)

Para explorar os verbos básicos do dplyr iremos utilizar a base de dados dados::voos. Essa base contém todos os 336.776 vôos que saíram da cidade de Nova Iorque em 2013. Esses dados vêm de um órgão de transporte dos EUA chamado Bureau of Transportation Statistics, e estão documentados em ?dados::voos.

voos
#> # A tibble: 336,776 × 19
#>     ano   mes   dia horario_saida saida_programada atraso_saida
#>   <int> <int> <int>         <int>            <int>        <dbl>
#> 1  2013     1     1           517              515            2
#> 2  2013     1     1           533              529            4
#> 3  2013     1     1           542              540            2
#> 4  2013     1     1           544              545           -1
#> 5  2013     1     1           554              600           -6
#> 6  2013     1     1           554              558           -4
#> # ℹ 336,770 more rows
#> # ℹ 13 more variables: horario_chegada <int>, chegada_prevista <int>, …
…
Verbos do dplyr são organizados em quatro grupos baseados na estrutura sobre a qual operam: linhas (rows), colunas (columns), grupos (groups) ou tabelas (tables). Nas próximas seções você aparenderá os verbos mais importantes para linhas, colunas e grupos, então voltaremos para os verbos de join que operam em tabelas na seção Capítulo 19. Vamos nessa!

3.2 Linhas (rows)

Os verbos mais importantes que operam nas linhas de um conjunto de dados são filter(), que modifica quais linhas estão presentes sem mudar a sua ordem, e arrange(), que modifica a ordem das linhas sem modificar quais estão presentes. Ambas as funções afetam apenas as linhas e as colunas permanecem intocadas. Também vamos falar sobre distinct(), que acha as linhas com valores únicos, mas diferentemente de arrange() e filter() também pode, opcionalmente, modificar as colunas.

3.2.1 filter()

filter() lhe permite manter linhas com base nos valores das colunas2. O primeiro argumento é o data frame. O segundo e demais argumentos são as condições que devem ser verdadeiras para manter a linha. Por exemplo, podemos achar todos os vôos que decolaram com mais de 120 minutos (duas horas) de atraso:

voos |> 
  filter(atraso_saida > 120)
#> # A tibble: 9,723 × 19
#>     ano   mes   dia horario_saida saida_programada atraso_saida
#>   <int> <int> <int>         <int>            <int>        <dbl>
#> 1  2013     1     1           848             1835          853
#> 2  2013     1     1           957              733          144
#> 3  2013     1     1          1114              900          134
#> 4  2013     1     1          1540             1338          122
#> 5  2013     1     1          1815             1325          290
#> 6  2013     1     1          1842             1422          260
#> # ℹ 9,717 more rows
#> # ℹ 13 more variables: horario_chegada <int>, chegada_prevista <int>, …

Assim como > (maior que), você também pode usar >= (maior ou igual a), < (menor que), <= (menor ou igual a), == (igual a), e != (diferente de). Você também pode combinar condições com & ou , para indicar “e” (avalia ambas as condições) ou com | para indicar “ou” (avalia ao menos uma condição):

# Voos que partiram no dia 1 de Janeiro
voos |> 
  filter(mes == 1 & dia == 1)
#> # A tibble: 842 × 19
#>     ano   mes   dia horario_saida saida_programada atraso_saida
#>   <int> <int> <int>         <int>            <int>        <dbl>
#> 1  2013     1     1           517              515            2
#> 2  2013     1     1           533              529            4
#> 3  2013     1     1           542              540            2
#> 4  2013     1     1           544              545           -1
#> 5  2013     1     1           554              600           -6
#> 6  2013     1     1           554              558           -4
#> # ℹ 836 more rows
#> # ℹ 13 more variables: horario_chegada <int>, chegada_prevista <int>, …

# Voos que partiram em janeiro ou fevereiro
voos |> 
  filter(mes == 1 | mes == 2)
#> # A tibble: 51,955 × 19
#>     ano   mes   dia horario_saida saida_programada atraso_saida
#>   <int> <int> <int>         <int>            <int>        <dbl>
#> 1  2013     1     1           517              515            2
#> 2  2013     1     1           533              529            4
#> 3  2013     1     1           542              540            2
#> 4  2013     1     1           544              545           -1
#> 5  2013     1     1           554              600           -6
#> 6  2013     1     1           554              558           -4
#> # ℹ 51,949 more rows
#> # ℹ 13 more variables: horario_chegada <int>, chegada_prevista <int>, …

Existe um atalho útil quando você está combinando | e ==: %in%. Ele vai manter as linhas cujas variáveis são iguais a um dos valores à direita:

# Uma forma mais curta de selecionar vôos que decolaram em janeiro ou fevereiro
voos |> 
  filter(mes %in% c(1, 2))
#> # A tibble: 51,955 × 19
#>     ano   mes   dia horario_saida saida_programada atraso_saida
#>   <int> <int> <int>         <int>            <int>        <dbl>
#> 1  2013     1     1           517              515            2
#> 2  2013     1     1           533              529            4
#> 3  2013     1     1           542              540            2
#> 4  2013     1     1           544              545           -1
#> 5  2013     1     1           554              600           -6
#> 6  2013     1     1           554              558           -4
#> # ℹ 51,949 more rows
#> # ℹ 13 more variables: horario_chegada <int>, chegada_prevista <int>, …
…
Outro erro é escrever as expressões com “ou” como faríamos em Português:

voos |> 
  filter(mes == 1 | 2)

Isso até “funciona”, no sentido de que não retornará um erro, mas ele não vai fazer o que você esperaria, pois | primeiro vai avaliar a condição mes == 1 e depois a condição 2, que não é uma condição adequada para se avaliar nesse caso. Iremos aprender mais sobre o que está acontecendo aqui em Seção 15.6.2.

3.2.3 arrange()

arrange() modifica a ordem das linhas com base no valor das colunas. Ela recebe um data frame e um conjunto de nomes de colunas (ou expressões mais complicadas) para ordenar por eles. Se você fornecer mais de um nome de coluna, cada coluna a mais será utilizada para desempatar os valores das colunas anteriores. Por exemplo, o código a seguir vai ordenar por horário da decolagem, que está distribuído em 4 colunas. Nós pegamos primeiro os anos mais antigos e então, dentro de cada ano, os primeiros meses e assim por diante.

voos |> 
  arrange(ano, mes, dia, horario_saida)
#> # A tibble: 336,776 × 19
#>     ano   mes   dia horario_saida saida_programada atraso_saida
#>   <int> <int> <int>         <int>            <int>        <dbl>
#> 1  2013     1     1           517              515            2
#> 2  2013     1     1           533              529            4
#> 3  2013     1     1           542              540            2
#> 4  2013     1     1           544              545           -1
#> 5  2013     1     1           554              600           -6
#> 6  2013     1     1           554              558           -4
#> # ℹ 336,770 more rows
#> # ℹ 13 more variables: horario_chegada <int>, chegada_prevista <int>, …

Você pode utilizar desc() em uma coluna dentro de arrange() para re-ordenar o data frame com base naquele coluna em ordem decrescente (do maior para o menor). Por exemplo, esse código ordena os vôos do mais para os menos atrasados:

voos |> 
  arrange(desc(atraso_saida))
#> # A tibble: 336,776 × 19
#>     ano   mes   dia horario_saida saida_programada atraso_saida
#>   <int> <int> <int>         <int>            <int>        <dbl>
#> 1  2013     1     9           641              900         1301
#> 2  2013     6    15          1432             1935         1137
#> 3  2013     1    10          1121             1635         1126
#> 4  2013     9    20          1139             1845         1014
#> 5  2013     7    22           845             1600         1005
#> 6  2013     4    10          1100             1900          960
#> # ℹ 336,770 more rows
#> # ℹ 13 more variables: horario_chegada <int>, chegada_prevista <int>, …

Perceba que o número de linhas não se alterou – estamos apenas organizando os dados e não filtrando.

3.2.4 distinct()

distinct() acha todas as linhas únicas em um conjunto de dados, então, do ponto de vista técnico ela opera principialmente nas linhas. No entanto, na maioria das vezes você vai querer combinações distintas de algumas variáveis, então você pode, opcionalmente, fornecer nome de colunas:

# Remove linhas duplicadas, se existirem 
voos |> 
  distinct()
#> # A tibble: 336,776 × 19
#>     ano   mes   dia horario_saida saida_programada atraso_saida
#>   <int> <int> <int>         <int>            <int>        <dbl>
#> 1  2013     1     1           517              515            2
#> 2  2013     1     1           533              529            4
#> 3  2013     1     1           542              540            2
#> 4  2013     1     1           544              545           -1
#> 5  2013     1     1           554              600           -6
#> 6  2013     1     1           554              558           -4
#> # ℹ 336,770 more rows
#> # ℹ 13 more variables: horario_chegada <int>, chegada_prevista <int>, …

# Acha todos os pares únicos de origens e destinos
voos |> 
  distinct(origem, destino)
#> # A tibble: 224 × 2
#>   origem destino
#>   <chr>  <chr>  
#> 1 EWR    IAH    
#> 2 LGA    IAH    
#> 3 JFK    MIA    
#> 4 JFK    BQN    
#> 5 LGA    ATL    
#> 6 EWR    ORD    
#> # ℹ 218 more rows

Por outro lado, caso você queira manter outras colunas quando estiver filtrando para linhas únicas, você pode usar a opção .keep_all = TRUE.

voos |> 
  distinct(origem, destino, .keep_all = TRUE)
#> # A tibble: 224 × 19
#>     ano   mes   dia horario_saida saida_programada atraso_saida
#>   <int> <int> <int>         <int>            <int>        <dbl>
#> 1  2013     1     1           517              515            2
#> 2  2013     1     1           533              529            4
#> 3  2013     1     1           542              540            2
#> 4  2013     1     1           544              545           -1
#> 5  2013     1     1           554              600           -6
#> 6  2013     1     1           554              558           -4
#> # ℹ 218 more rows
#> # ℹ 13 more variables: horario_chegada <int>, chegada_prevista <int>, …

Não é uma coincidência que todos esses vôos distintos sejam em 1º de janeiro: distinct() irá achar a primeira ocorrência de uma linha única no conjunto de dados e decartar todas as demais.

Se, em vez disso, você quiser achar o número de ocorrências, é melhor trocar distinct() por count(), e com o argumento sort = TRUE você pode organizá-los em ordem decrescente do número de ocorrências. Você vai aprendar mais sobre contagens em Seção 13.3.

voos |>
  count(origem, destino, sort = TRUE)
#> # A tibble: 224 × 3
#>   origem destino     n
#>   <chr>  <chr>   <int>
#> 1 JFK    LAX     11262
#> 2 LGA    ATL     10263
#> 3 LGA    ORD      8857
#> 4 JFK    SFO      8204
#> 5 LGA    CLT      6168
#> 6 EWR    ORD      6100
#> # ℹ 218 more rows
…
3.3 Colunas (columns)

Existem quatro verbos importantes que afetam as colunas sem modificar as linhas: mutate() cria novas colunas que são derivadas das colunas existentes, select() alteram as colunas que estão presentes, rename() modifica o nome das colunas e relocate() modifica as posições das colunas.

3.3.1 mutate()

O papel de mutate() é adicionar novas colunas que são calculadas a partir de colunas existentes. Nos capítulos sobre transformações, você aprenderá sobre um grande conjunto de funções que podem ser utilizadas para manipular diferentes tipos de variáveis. Por enquanto, vamos nos ater à álgebra básica, que nos permite calcular o tempo_ganho, ou seja, quanto tempo um vôo atrasado recuperou no ar, e a velocidade velocidade em milhas por hora:

voos |> 
  mutate(
    tempo_ganho = atraso_saida - atraso_chegada,
    velocidade = distancia / tempo_voo * 60
  )
#> # A tibble: 336,776 × 21
#>     ano   mes   dia horario_saida saida_programada atraso_saida
#>   <int> <int> <int>         <int>            <int>        <dbl>
#> 1  2013     1     1           517              515            2
#> 2  2013     1     1           533              529            4
#> 3  2013     1     1           542              540            2
#> 4  2013     1     1           544              545           -1
#> 5  2013     1     1           554              600           -6
#> 6  2013     1     1           554              558           -4
#> # ℹ 336,770 more rows
#> # ℹ 15 more variables: horario_chegada <int>, chegada_prevista <int>, …

Por padrão, mutate() adiciona novas colunas à direita do seu conjunto de dados, o que torna difícil ver o que está acontecendo aqui. Podemos usar o argumento .before para, em vez disso, adicionar as variáveis à esquerda4:

voos |> 
  mutate(
    tempo_ganho = atraso_saida - atraso_chegada,
    velocidade = distancia / tempo_voo * 60,
    .before = 1
  )
#> # A tibble: 336,776 × 21
#>   tempo_ganho velocidade   ano   mes   dia horario_saida saida_programada
#>         <dbl>      <dbl> <int> <int> <int>         <int>            <int>
#> 1          -9       370.  2013     1     1           517              515
#> 2         -16       374.  2013     1     1           533              529
#> 3         -31       408.  2013     1     1           542              540
#> 4          17       517.  2013     1     1           544              545
#> 5          19       394.  2013     1     1           554              600
#> 6         -16       288.  2013     1     1           554              558
#> # ℹ 336,770 more rows
#> # ℹ 14 more variables: atraso_saida <dbl>, horario_chegada <int>, …
…
starts_with("abc"): dá match em nomes que se iniciam com “abc”.

ends_with("xyz"): dá match em nomes que terminam “xyz”.

contains("ijk"): dá match em nomes que contém “ijk”.

num_range("x", 1:3): buscará x1, x2 e x3.

Confira ?select para mais detalhes. Uma vez que você saiba expressões regulares (o tópico de Capítulo 15) você também poderá utilizar matches() para selecionar variáveis que são identificáveis por um dado padrão.

Você pode renomear variáveis à media que seleciona elas com select() utilizando =. O novo nome aparece à esquerda do = e o nome antigo à direita:

voos |> 
  select(tail_num = codigo_cauda)
#> # A tibble: 336,776 × 1
#>   tail_num
#>   <chr>   
#> 1 N14228  
#> 2 N24211  
#> 3 N619AA  
#> 4 N804JB  
#> 5 N668DN  
#> 6 N39463  
#> # ℹ 336,770 more rows

3.3.3 rename()

Se você quiser manter todas as variáveis disponíveis e quer renomear apenas algumas delas, você pode utilizar rename() em vez de select():

voos |> 
  rename(tail_num = codigo_cauda)
#> # A tibble: 336,776 × 19
#>     ano   mes   dia horario_saida saida_programada atraso_saida
#>   <int> <int> <int>         <int>            <int>        <dbl>
#> 1  2013     1     1           517              515            2
#> 2  2013     1     1           533              529            4
#> 3  2013     1     1           542              540            2
#> 4  2013     1     1           544              545           -1
#> 5  2013     1     1           554              600           -6
#> 6  2013     1     1           554              558           -4
#> # ℹ 336,770 more rows
#> # ℹ 13 more variables: horario_chegada <int>, chegada_prevista <int>, …

Se você tem várias colunas com nomes inconsistentes e gostaria de manualmente consertá-las de uma vez, confira o pacote janitor::clean_names() que fornece alguns métodos úteis de limpeza.

3.3.4 relocate()

Utilize relocate() para mover as variáveis de lugar. Talvez você queira deixar variáveis relacionadas juntas ou mover variáveis importantes para a frente do data frame. Por padrão relocate() já move as variáveis para a frente:

voos |> 
  relocate(data_hora, tempo_voo)
#> # A tibble: 336,776 × 19
#>   data_hora           tempo_voo   ano   mes   dia horario_saida
#>   <dttm>                  <dbl> <int> <int> <int>         <int>
#> 1 2013-01-01 05:00:00       227  2013     1     1           517
#> 2 2013-01-01 05:00:00       227  2013     1     1           533
#> 3 2013-01-01 05:00:00       160  2013     1     1           542
#> 4 2013-01-01 05:00:00       183  2013     1     1           544
#> 5 2013-01-01 06:00:00       116  2013     1     1           554
#> 6 2013-01-01 05:00:00       150  2013     1     1           554
#> # ℹ 336,770 more rows
#> # ℹ 13 more variables: saida_programada <int>, atraso_saida <dbl>, …
…
3.4 O pipe

Nós te mostramos acima alguns exemplos simples do uso do pipe, mas o seu real poder emerge quando você começa a combinar múltiplos verbos. Por exemplo, imagine que você gostaria de achar os vôos mais rápidos do aeroporto IAH em Houston: você precisaria combinar filter(), mutate(), select() e arrange():

voos |> 
  filter(destino == "IAH") |> 
  mutate(velocidade = distancia / tempo_voo * 60) |> 
  select(ano:dia, horario_saida, companhia_aerea, voo, velocidade) |> 
  arrange(desc(velocidade))
#> # A tibble: 7,198 × 7
#>     ano   mes   dia horario_saida companhia_aerea   voo velocidade
#>   <int> <int> <int>         <int> <chr>           <int>      <dbl>
#> 1  2013     7     9           707 UA                226       522.
#> 2  2013     8    27          1850 UA               1128       521.
#> 3  2013     8    28           902 UA               1711       519.
#> 4  2013     8    28          2122 UA               1022       519.
#> 5  2013     6    11          1628 UA               1178       515.
#> 6  2013     8    27          1017 UA                333       515.
#> # ℹ 7,192 more rows
…
