R para Ciência de Dados (2ª edição) - 7 ✅ Importação de dados
…
7.4 Importando dados de múltiplos arquivos

Às vezes seus dados estão divididos em vários arquivos em vez de estarem contidos em um único arquivo. Por exemplo, você pode ter dados de vendas para vários meses, com os dados de cada mês em um arquivo separado: 01-vendas.csv para janeiro, 02-vendas.csv para fevereiro e 03-vendas.csv para março.

arquivos_vendas <- c("data/01-vendas.csv", "data/02-vendas.csv", "data/03-vendas.csv")
read_csv(arquivos_vendas, id = "arquivo")
#> # A tibble: 19 × 6
#>   arquivo            mes       ano marca  item     n
#>   <chr>              <chr>   <dbl> <dbl> <dbl> <dbl>
#> 1 data/01-vendas.csv Janeiro  2019     1  1234     3
#> 2 data/01-vendas.csv Janeiro  2019     1  8721     9
#> 3 data/01-vendas.csv Janeiro  2019     1  1822     2
#> 4 data/01-vendas.csv Janeiro  2019     2  3333     1
#> 5 data/01-vendas.csv Janeiro  2019     2  2156     9
#> 6 data/01-vendas.csv Janeiro  2019     2  3987     6
#> # ℹ 13 more rows
…
