R para Ciência de Dados (2ª edição) - 25 ✅ Funções
…
Para resumir múltiplas variáveis, você precisará esperar até Seção 26.2, onde aprenderá como usar across().

Outra função auxiliar usando summarize() popular é uma versão de count() que também calcula proporções:

# https://twitter.com/Diabb6/status/1571635146658402309
conta_prop <- function(df, var, ordenar = FALSE) {
  df |>
    count({{ var }}, sort = ordenar) |>
    mutate(prop = n / sum(n))
}

diamante |> conta_prop(transparencia)
#> # A tibble: 8 × 3
#>   transparencia     n   prop
#>   <ord>         <int>  <dbl>
#> 1 I1              741 0.0137
#> 2 SI2            9194 0.170 
#> 3 SI1           13065 0.242 
#> 4 VS2           12258 0.227 
#> 5 VS1            8171 0.151 
#> 6 VVS2           5066 0.0939
#> # ℹ 2 more rows

Esta função tem três argumentos: df, var e ordena, e apenas var precisa ser abraçada (embrancing) porque é passada para count() que usa mascaramento de dados (data-masking) para todas as variáveis. Observe que usamos um valor padrão para ordenar para que, se o usuário não fornecer seu próprio valor, o padrão seja FALSE.

Ou talvez você queira encontrar os valores exclusivos ordenados de uma variável para um subconjunto de dados. Em vez de fornecer uma variável e um valor para fazer a filtragem, permitiremos que o usuário forneça uma condição:

unico_onde <- function(df, condicao, var) {
  df |> 
    filter({{ condicao }}) |> 
    distinct({{ var }}) |> 
    arrange({{ var }})
}

# Procura todos os destinos em Dezembro
voos |> unico_onde(mes == 12, destino)
#> # A tibble: 96 × 1
#>   destino
#>   <chr>  
#> 1 ABQ    
#> 2 ALB    
#> 3 ATL    
#> 4 AUS    
#> 5 AVL    
#> 6 BDL    
#> # ℹ 90 more rows
…
Isto não funciona, pois group_by() usa mascaramento de dados (data-masking), não seleção organizada (tidy-selection). Podemos contornar esse problema usando a útil função pick(), que permite usar a seleção organizada (tidy-selection) dentro de funções de mascaramento de dados (data-masking):

conta_faltantes <- function(df, grupo_vars, x_var) {
  df |> 
    group_by(pick({{ grupo_vars }})) |> 
    summarize(
      n_miss = sum(is.na({{ x_var }})),
      .groups = "drop"
  )
}

voos |> 
  conta_faltantes(c(ano, mes, dia), horario_saida)
#> # A tibble: 365 × 4
#>     ano   mes   dia n_miss
#>   <int> <int> <int>  <int>
#> 1  2013     1     1      4
#> 2  2013     1     2      8
#> 3  2013     1     3     10
#> 4  2013     1     4      6
#> 5  2013     1     5      3
#> 6  2013     1     6      1
#> # ℹ 359 more rows
…
# https://twitter.com/pollicipes/status/1571606508944719876
conta_wide <- function(data, linhas, colunas) {
  data |> 
    count(pick(c({{ linhas }}, {{ colunas }}))) |> 
    pivot_wider(
      names_from = {{ colunas }}, 
      values_from = n,
      names_sort = TRUE,
      values_fill = 0
    )
}

diamante |> conta_wide(c(transparencia, cor), corte)
#> # A tibble: 56 × 7
#>   transparencia cor   Justo   Bom `Muito Bom` Premium Ideal
#>   <ord>         <ord> <int> <int>       <int>   <int> <int>
#> 1 I1            D         4     8           5      12    13
#> 2 I1            E         9    23          22      30    18
#> 3 I1            F        35    19          13      34    42
#> 4 I1            G        53    19          16      46    16
#> 5 I1            H        52    14          12      46    38
#> 6 I1            I        34     9           8      24    17
#> # ℹ 50 more rows
…
