R para Ciência de Dados (2ª edição) - 20 ✅ Planilhas
…
Figura 20.2: Arquivo Excel chamado pinguins.xlsx contendo três planilhas (ou abas).

Você pode importar uma única planilha usando o argumento sheet na função read_excel(). Por padrão, o que utilizamos até agora, a primeira planilha é importada.

read_excel("data/pinguins.xlsx", sheet = "Ilha Torgersen")
#> New names:
#> • `` -> `...1`
#> # A tibble: 52 × 9
#>   ...1  especie           ilha      comprimento_bico profundidade_bico
#>   <chr> <chr>             <chr>                <dbl>             <dbl>
#> 1 1     Pinguim-de-adélia Torgersen             39.1              18.7
#> 2 2     Pinguim-de-adélia Torgersen             39.5              17.4
#> 3 3     Pinguim-de-adélia Torgersen             40.3              18  
#> 4 4     Pinguim-de-adélia Torgersen             NA                NA  
#> 5 5     Pinguim-de-adélia Torgersen             36.7              19.3
#> 6 6     Pinguim-de-adélia Torgersen             39.3              20.6
#> # ℹ 46 more rows
#> # ℹ 4 more variables: comprimento_nadadeira <dbl>, massa_corporal <dbl>, …

Algumas variáveis que parecem conter dados numéricos, são importadas como caracteres (texto) devido à cadeia de caractere "NA" não ser reconhecida como um verdadeiro NA.

pinguins_torgersen <- read_excel("data/pinguins.xlsx", sheet = "Ilha Torgersen", na = "NA")
#> New names:
#> • `` -> `...1`

pinguins_torgersen
#> # A tibble: 52 × 9
#>   ...1  especie           ilha      comprimento_bico profundidade_bico
#>   <chr> <chr>             <chr>                <dbl>             <dbl>
#> 1 1     Pinguim-de-adélia Torgersen             39.1              18.7
#> 2 2     Pinguim-de-adélia Torgersen             39.5              17.4
#> 3 3     Pinguim-de-adélia Torgersen             40.3              18  
#> 4 4     Pinguim-de-adélia Torgersen             NA                NA  
#> 5 5     Pinguim-de-adélia Torgersen             36.7              19.3
#> 6 6     Pinguim-de-adélia Torgersen             39.3              20.6
#> # ℹ 46 more rows
#> # ℹ 4 more variables: comprimento_nadadeira <dbl>, massa_corporal <dbl>, …
…
Neste caso, o conjunto de dados completo está espalhado entre três planilhas distintas no arquivo. Cada planilha tem o mesmo número de colunas, mas diferentes números de linhas.

dim(pinguins_torgersen)
#> [1] 52  9
dim(pinguins_biscoe)
#> [1] 168   9
dim(pinguins_dream)
#> [1] 124   9

Nós podemos uní-las usando bind_rows().

pinguins <- bind_rows(pinguins_torgersen, pinguins_biscoe, pinguins_dream)
pinguins
#> # A tibble: 344 × 9
#>   ...1  especie           ilha      comprimento_bico profundidade_bico
#>   <chr> <chr>             <chr>                <dbl>             <dbl>
#> 1 1     Pinguim-de-adélia Torgersen             39.1              18.7
#> 2 2     Pinguim-de-adélia Torgersen             39.5              17.4
#> 3 3     Pinguim-de-adélia Torgersen             40.3              18  
#> 4 4     Pinguim-de-adélia Torgersen             NA                NA  
#> 5 5     Pinguim-de-adélia Torgersen             36.7              19.3
#> 6 6     Pinguim-de-adélia Torgersen             39.3              20.6
#> # ℹ 338 more rows
#> # ℹ 4 more variables: comprimento_nadadeira <dbl>, massa_corporal <dbl>, …
…
Figura 20.3: Arquivo do Excel chamado deaths.xlsx

Esta planilha é um dos exemplos fornecidos com o pacote readxl. Você pode usar a função readxl_example() para localizar esta planilha no diretório em que o pacote foi instalado em seu computador. Esta função retorna o caminho para o arquivo do Excel, que você pode importar usando a read_excel() como de costume.

obitos_caminho <- readxl_example("deaths.xlsx")
obitos <- read_excel(obitos_caminho)
#> New names:
#> • `` -> `...2`
#> • `` -> `...3`
#> • `` -> `...4`
#> • `` -> `...5`
#> • `` -> `...6`
obitos
#> # A tibble: 18 × 6
#>   `Lots of people`    ...2       ...3  ...4     ...5          ...6           
#>   <chr>               <chr>      <chr> <chr>    <chr>         <chr>          
#> 1 simply cannot resi… <NA>       <NA>  <NA>     <NA>          some notes     
#> 2 at                  the        top   <NA>     of            their spreadsh…
#> 3 or                  merging    <NA>  <NA>     <NA>          cells          
#> 4 Name                Profession Age   Has kids Date of birth Date of death  
#> 5 David Bowie         musician   69    TRUE     17175         42379          
#> 6 Carrie Fisher       actor      60    TRUE     20749         42731          
#> # ℹ 12 more rows

As primeiras três linhas e as quatro linhas no final, não fazem parte do data frame. É possível eliminar estas linhas extras usando os argumentos skip e n_max, mas recomendamos utilizar intervalos (range) de células. No Excel, a célula superior esquerda é a A1. Conforme você se move pelas colunas para a direita, o título da célula segue a sequência do alfabeto, ou seja: B1, C1, etc. E conforme você se move para baixo na coluna, o número da célula aumenta, ex: A2, A3, etc.

Aqui, os dados que desejamos importar começam na célula A5 e terminam na célula F15. Na notação da planilha, temos A5:F15, que fornecemos para o argumento range:

read_excel(obitos_caminho, range = "A5:F15")
#> # A tibble: 10 × 6
#>   Name          Profession   Age `Has kids` `Date of birth`    
#>   <chr>         <chr>      <dbl> <lgl>      <dttm>             
#> 1 David Bowie   musician      69 TRUE       1947-01-08 00:00:00
#> 2 Carrie Fisher actor         60 TRUE       1956-10-21 00:00:00
#> 3 Chuck Berry   musician      90 TRUE       1926-10-18 00:00:00
#> 4 Bill Paxton   actor         61 TRUE       1955-05-17 00:00:00
#> 5 Prince        musician      57 TRUE       1958-06-07 00:00:00
#> 6 Alan Rickman  actor         69 FALSE      1946-02-21 00:00:00
#> # ℹ 4 more rows
#> # ℹ 1 more variable: `Date of death` <dttm>
…
Note que definimos os tipos das colunas de uma forma um pouco diferente aqui, usando códigos abreviados. Por exemplo, “dcccc” significa “double, character, character, character, character”.

Também é possível importar planilhas individuais do Planilhas Google. Para importar somente a planilha “Ilha Torgersen” da Planilha Pinguins do Planilhas Google:

pinguins_planilha_id <- "1aFu8lnD_g0yjF5O-K6SFgSEWiHPpgvFCF0NY9D6LXnY"
read_sheet(pinguins_planilha_id, sheet = "Torgersen Island")
#> ✔ Reading from penguins.
#> ✔ Range ''Torgersen Island''.
#> # A tibble: 52 × 8
#>   species island    bill_length_mm bill_depth_mm flipper_length_mm
#>   <chr>   <chr>     <list>         <list>        <list>           
#> 1 Adelie  Torgersen <dbl [1]>      <dbl [1]>     <dbl [1]>        
#> 2 Adelie  Torgersen <dbl [1]>      <dbl [1]>     <dbl [1]>        
#> 3 Adelie  Torgersen <dbl [1]>      <dbl [1]>     <dbl [1]>        
#> 4 Adelie  Torgersen <chr [1]>      <chr [1]>     <chr [1]>        
#> 5 Adelie  Torgersen <dbl [1]>      <dbl [1]>     <dbl [1]>        
#> 6 Adelie  Torgersen <dbl [1]>      <dbl [1]>     <dbl [1]>        
#> # ℹ 46 more rows
#> # ℹ 3 more variables: body_mass_g <list>, sex <chr>, year <dbl>

Você pode obter todos os nomes de planilhas de dentro de um arquivo do Planilhas Google com sheet_names():

sheet_names(pinguins_planilha_id)
#> [1] "Torgersen Island" "Biscoe Island"    "Dream Island"

Finalmente, assim como na read_excel(), podemos importar um intervalo de uma planilha definindo o argumento range na função read_sheet(). Observe que também estamos utilizando a função gs4_example() para localizar a planilha de exemplo que vem junto com o pacote googlesheets4.

obitos_url <- gs4_example("deaths")
obitos <- read_sheet(obitos_url, range = "A5:F15")
#> ✔ Reading from deaths.
#> ✔ Range A5:F15.
obitos
#> # A tibble: 10 × 6
#>   Name          Profession   Age `Has kids` `Date of birth`    
#>   <chr>         <chr>      <dbl> <lgl>      <dttm>             
#> 1 David Bowie   musician      69 TRUE       1947-01-08 00:00:00
#> 2 Carrie Fisher actor         60 TRUE       1956-10-21 00:00:00
#> 3 Chuck Berry   musician      90 TRUE       1926-10-18 00:00:00
#> 4 Bill Paxton   actor         61 TRUE       1955-05-17 00:00:00
#> 5 Prince        musician      57 TRUE       1958-06-07 00:00:00
#> 6 Alan Rickman  actor         69 FALSE      1946-02-21 00:00:00
#> # ℹ 4 more rows
#> # ℹ 1 more variable: `Date of death` <dttm>
…
