R para Ciência de Dados (2ª edição) - 24 ✅ Raspagem de dados (Web scraping)
…
    html_element("h2") |> 
    html_text2(),
  data_lancamento = secao |> 
    html_element("p") |> 
    html_text2() |> 
    str_remove("Released: ") |> 
    parse_date(),
  diretor = secao |> 
    html_element(".director") |> 
    html_text2(),
  introducao = secao |> 
    html_element(".crawl") |> 
    html_text2()
)
#> # A tibble: 7 × 4
#>   titulo                  data_lancamento diretor          introducao        
#>   <chr>                   <date>          <chr>            <chr>             
#> 1 The Phantom Menace      1999-05-19      George Lucas     "Turmoil has engu…
#> 2 Attack of the Clones    2002-05-16      George Lucas     "There is unrest …
#> 3 Revenge of the Sith     2005-05-19      George Lucas     "War! The Republi…
#> 4 A New Hope              1977-05-25      George Lucas     "It is a period o…
#> 5 The Empire Strikes Back 1980-05-17      Irvin Kershner   "It is a dark tim…
#> 6 Return of the Jedi      1983-05-25      Richard Marquand "Luke Skywalker h…
#> # ℹ 1 more row
…
Figura 24.1: Captura de tela dos melhores filmes da página IMDb feita em 05-12-2022.

Este dados têm uma clara estrutura tabular, então vale a pena começar com html_table():

url <- "https://web.archive.org/web/20220201012049/https://www.imdb.com/chart/top/"
html <- read_html(url)

tabela <- html |> 
  html_element("table") |> 
  html_table()
tabela
#> # A tibble: 250 × 5
#>   ``    `Rank & Title`                    `IMDb Rating` `Your Rating`   ``   
#>   <lgl> <chr>                                     <dbl> <chr>           <lgl>
#> 1 NA    "1.\n      The Shawshank Redempt…           9.2 "12345678910\n… NA   
#> 2 NA    "2.\n      The Godfather\n      …           9.1 "12345678910\n… NA   
#> 3 NA    "3.\n      The Godfather: Part I…           9   "12345678910\n… NA   
#> 4 NA    "4.\n      The Dark Knight\n    …           9   "12345678910\n… NA   
#> 5 NA    "5.\n      12 Angry Men\n       …           8.9 "12345678910\n… NA   
#> 6 NA    "6.\n      Schindler's List\n   …           8.9 "12345678910\n… NA   
#> # ℹ 244 more rows
…
    nota_imdb = `IMDb Rating`
  ) |> 
  mutate(
    classificacao_titulo_ano = str_replace_all(classificacao_titulo_ano, "\n +", " ")
  ) |> 
  separate_wider_regex(
    classificacao_titulo_ano,
    patterns = c(
      classificacao = "\\d+", "\\. ",
      titulo = ".+", " +\\(",
      ano = "\\d+", "\\)"
    )
  )
classificacao
#> # A tibble: 250 × 4
#>   classificacao titulo                   ano   nota_imdb
#>   <chr>         <chr>                    <chr>     <dbl>
#> 1 1             The Shawshank Redemption 1994        9.2
#> 2 2             The Godfather            1972        9.1
#> 3 3             The Godfather: Part II   1974        9  
#> 4 4             The Dark Knight          2008        9  
#> 5 5             12 Angry Men             1957        8.9
#> 6 6             Schindler's List         1993        8.9
#> # ℹ 244 more rows
…
  mutate(
    classificacao_n = html |> html_elements("td strong") |> html_attr("title")
  ) |> 
  separate_wider_regex(
    classificacao_n,
    patterns = c(
      "[0-9.]+ based on ",
      numero_usuarios = "[0-9,]+",
      " user ratings"
    )
  ) |> 
  mutate(
    numero_usuarios = parse_number(numero_usuarios)
  )
#> # A tibble: 250 × 5
#>   classificacao titulo                   ano   nota_imdb numero_usuarios
#>   <chr>         <chr>                    <chr>     <dbl>           <dbl>
#> 1 1             The Shawshank Redemption 1994        9.2         2536415
#> 2 2             The Godfather            1972        9.1         1745675
#> 3 3             The Godfather: Part II   1974        9           1211032
#> 4 4             The Dark Knight          2008        9           2486931
#> 5 5             12 Angry Men             1957        8.9          749563
#> 6 6             Schindler's List         1993        8.9         1295705
#> # ℹ 244 more rows
…
